Analysis 1: UNC Salaries
…
prop70 = proportion of employees making at least $70,000 in salary for each combination.

In the process, make sure you use ungroup() with the pipe %>% to release the grouping so future work is no longer group specific. Following the creation of deptyear_summary, prove that your code worked by using head() to view the first 10 rows.

deptyear_summary = 
  salary.final %>%
  group_by(Department,YrsEmployed) %>%
  summarize(n=n(),
            mean=mean(Salary, na.rm=F),
            sd=sd(Salary),
            prop70=mean(Salary>=70000))
  ungroup(salary.final)

## # A tibble: 12,646 x 6
##    YrsEmployed Salary Name       Department      Job          Exempt       
##          <dbl>  <dbl> <chr>      <chr>           <chr>        <chr>        
##  1           2  39646 DALEY, JO A and S - Busi Fiscal Affa Subject to S
##  2           2  48814 WEBSTER,  A and S - Busi HR Coordina Subject to S
##  3           2  48814 WOODSON,  A and S - Busi HR Coordina Subject to S
##  4           2  48814 WORTHEN,  A and S - Busi HR Coordina Subject to S
##  5           3  47164 CHESTER,  A and S - Busi HR Coordina Subject to S
##  6           3  47983 GIBSON, J A and S - Busi Fiscal Affa Subject to S
##  7           3  39646 RAUSCHER, A and S - Busi Fiscal Affa Subject to S
##  8           3  39646 STRINGFEL A and S - Busi Fiscal Affa Subject to S
##  9           4  48814 WATSON, S A and S - Busi HR Coordina Subject to S
## 10           4  47983 YOUSEF, H A and S - Busi Fiscal Affa Subject to S
## #  with 12,636 more rows
…
